<?xml version="1.0" encoding="UTF-8" standalone="no"?><svg xmlns="http://www.w3.org/2000/svg" xmlns:xlink="http://www.w3.org/1999/xlink" contentScriptType="application/ecmascript" contentStyleType="text/css" height="1406.6918px" preserveAspectRatio="none" style="width:3001px;height:1406px;background:#FFFFFF;" version="1.1" viewBox="0 0 3001 1406" width="3001.4138px" zoomAndPan="magnify"><defs><filter height="300%" id="f1rr5mxs1ruyfj" width="300%" x="-1" y="-1"><feGaussianBlur result="blurOut" stdDeviation="2.8275212064090476"/><feColorMatrix in="blurOut" result="blurOut2" type="matrix" values="0 0 0 0 0 0 0 0 0 0 0 0 0 0 0 0 0 0 .4 0"/><feOffset dx="5.655042412818095" dy="5.655042412818095" in="blurOut2" result="blurOut3"/><feBlend in="SourceGraphic" in2="blurOut3" mode="normal"/></filter></defs><g><!--MD5=[c8d361c696f632bc4688f1fc0b87525f]
class Logradouro--><rect codeLine="21" fill="#FEFECE" filter="url(#f1rr5mxs1ruyfj)" height="93.8715" id="Logradouro" style="stroke:#A80036;stroke-width:2.120640904806786;" width="270.0283" x="1622.9972" y="1005.8907"/><ellipse cx="1694.7455" cy="1028.5108" fill="#ADD1B2" rx="15.5514" ry="15.5514" style="stroke:#A80036;stroke-width:1.4137606032045238;"/><path d="M1694.1933,1037.2143 Q1691.8738,1037.2143 1690.3717,1036.2423 Q1688.8696,1035.2483 1688.1185,1033.459 Q1687.3895,1031.6476 1687.3895,1029.2619 Q1687.3895,1026.5669 1688.2511,1024.6451 Q1689.1347,1022.7012 1690.8356,1021.6629 Q1692.5586,1020.6247 1695.0327,1020.6247 Q1696.2256,1020.6247 1697.1092,1020.8677 Q1697.9928,1021.0886 1698.9205,1021.5525 L1697.8381,1024.2254 Q1696.9987,1023.8057 1696.2918,1023.651 Q1695.5849,1023.4964 1694.9222,1023.4964 Q1693.3759,1023.4964 1692.4482,1024.2033 Q1691.5204,1024.8881 1691.1228,1026.1693 Q1690.7251,1027.4284 1690.7251,1029.1294 Q1690.7251,1031.7802 1691.675,1033.0614 Q1692.6249,1034.3426 1694.7455,1034.3426 Q1695.5408,1034.3426 1696.3581,1034.1438 Q1697.1975,1033.945 1698.302,1033.4369 L1698.302,1036.3749 Q1697.3301,1036.8167 1696.2697,1037.0155 Q1695.2315,1037.2143 1694.1933,1037.2143 Z " fill="#000000"/><text fill="#000000" font-family="Arial" font-size="22.6202" lengthAdjust="spacing" textLength="114.5146" x="1723.7276" y="1036.7228">Logradouro</text><line style="stroke:#A80036;stroke-width:2.120640904806786;" x1="1624.4109" x2="1891.6117" y1="1051.131" y2="1051.131"/><ellipse cx="1638.5485" cy="1066.6824" rx="4.2413" ry="4.2413" style="stroke:#038048;stroke-width:1.4137606032045238;fill:none;"/><text fill="#000000" font-family="Arial" font-size="22.6202" lengthAdjust="spacing" textLength="233.2705" x="1651.2724" y="1078.0035">nomeLogradouro:String</text><line style="stroke:#A80036;stroke-width:2.120640904806786;" x1="1624.4109" x2="1891.6117" y1="1088.4521" y2="1088.4521"/><!--MD5=[0b1628d350daeda1dc91bef617b02ae5]
class Cidade--><rect codeLine="24" fill="#FEFECE" filter="url(#f1rr5mxs1ruyfj)" height="93.8715" id="Cidade" style="stroke:#A80036;stroke-width:2.120640904806786;" width="229.0292" x="1275.2121" y="1005.8907"/><ellipse cx="1346.9604" cy="1028.5108" fill="#ADD1B2" rx="15.5514" ry="15.5514" style="stroke:#A80036;stroke-width:1.4137606032045238;"/><path d="M1346.4082,1037.2143 Q1344.0887,1037.2143 1342.5866,1036.2423 Q1341.0845,1035.2483 1340.3334,1033.459 Q1339.6044,1031.6476 1339.6044,1029.2619 Q1339.6044,1026.5669 1340.466,1024.6451 Q1341.3496,1022.7012 1343.0505,1021.6629 Q1344.7735,1020.6247 1347.2476,1020.6247 Q1348.4404,1020.6247 1349.324,1020.8677 Q1350.2076,1021.0886 1351.1354,1021.5525 L1350.053,1024.2254 Q1349.2136,1023.8057 1348.5067,1023.651 Q1347.7998,1023.4964 1347.1371,1023.4964 Q1345.5908,1023.4964 1344.6631,1024.2033 Q1343.7353,1024.8881 1343.3377,1026.1693 Q1342.94,1027.4284 1342.94,1029.1294 Q1342.94,1031.7802 1343.8899,1033.0614 Q1344.8398,1034.3426 1346.9604,1034.3426 Q1347.7557,1034.3426 1348.573,1034.1438 Q1349.4124,1033.945 1350.5169,1033.4369 L1350.5169,1036.3749 Q1349.5449,1036.8167 1348.4846,1037.0155 Q1347.4464,1037.2143 1346.4082,1037.2143 Z " fill="#000000"/><text fill="#000000" font-family="Arial" font-size="22.6202" lengthAdjust="spacing" textLength="73.5156" x="1375.9425" y="1036.7228">Cidade</text><line style="stroke:#A80036;stroke-width:2.120640904806786;" x1="1276.6258" x2="1502.8275" y1="1051.131" y2="1051.131"/><ellipse cx="1290.7634" cy="1066.6824" rx="4.2413" ry="4.2413" style="stroke:#038048;stroke-width:1.4137606032045238;fill:none;"/><text fill="#000000" font-family="Arial" font-size="22.6202" lengthAdjust="spacing" textLength="192.2714" x="1303.4873" y="1078.0035">nomeCidade:String</text><line style="stroke:#A80036;stroke-width:2.120640904806786;" x1="1276.6258" x2="1502.8275" y1="1088.4521" y2="1088.4521"/><!--MD5=[36c1942e8942a3e4f47e6de3733e3d18]
class Endereco--><rect codeLine="27" fill="#FEFECE" filter="url(#f1rr5mxs1ruyfj)" height="93.8715" id="Endereco" style="stroke:#A80036;stroke-width:2.120640904806786;" width="141.3761" x="1016.4939" y="1005.8907"/><ellipse cx="1037.7003" cy="1028.5108" fill="#ADD1B2" rx="15.5514" ry="15.5514" style="stroke:#A80036;stroke-width:1.4137606032045238;"/><path d="M1037.148,1037.2143 Q1034.8286,1037.2143 1033.3265,1036.2423 Q1031.8243,1035.2483 1031.0733,1033.459 Q1030.3443,1031.6476 1030.3443,1029.2619 Q1030.3443,1026.5669 1031.2058,1024.6451 Q1032.0894,1022.7012 1033.7904,1021.6629 Q1035.5134,1020.6247 1037.9875,1020.6247 Q1039.1803,1020.6247 1040.0639,1020.8677 Q1040.9475,1021.0886 1041.8753,1021.5525 L1040.7929,1024.2254 Q1039.9535,1023.8057 1039.2466,1023.651 Q1038.5397,1023.4964 1037.877,1023.4964 Q1036.3307,1023.4964 1035.4029,1024.2033 Q1034.4751,1024.8881 1034.0775,1026.1693 Q1033.6799,1027.4284 1033.6799,1029.1294 Q1033.6799,1031.7802 1034.6298,1033.0614 Q1035.5796,1034.3426 1037.7003,1034.3426 Q1038.4955,1034.3426 1039.3129,1034.1438 Q1040.1523,1033.945 1041.2568,1033.4369 L1041.2568,1036.3749 Q1040.2848,1036.8167 1039.2245,1037.0155 Q1038.1863,1037.2143 1037.148,1037.2143 Z " fill="#000000"/><text fill="#000000" font-family="Arial" font-size="22.6202" lengthAdjust="spacing" textLength="96.1357" x="1057.4929" y="1036.7228">Endereco</text><line style="stroke:#A80036;stroke-width:2.120640904806786;" x1="1017.9076" x2="1156.4562" y1="1051.131" y2="1051.131"/><ellipse cx="1032.0452" cy="1066.6824" rx="4.2413" ry="4.2413" style="stroke:#038048;stroke-width:1.4137606032045238;fill:none;"/><text fill="#000000" font-family="Arial" font-size="22.6202" lengthAdjust="spacing" textLength="93.3082" x="1044.7691" y="1078.0035">cpf:String</text><line style="stroke:#A80036;stroke-width:2.120640904806786;" x1="1017.9076" x2="1156.4562" y1="1088.4521" y2="1088.4521"/><!--MD5=[d1f999912e3f3c829244a3fb12ef8919]
class TipoLogradouro--><rect codeLine="9" fill="#FEFECE" filter="url(#f1rr5mxs1ruyfj)" height="119.8825" id="TipoLogradouro" style="stroke:#A80036;stroke-width:2.120640904806786;" width="261.5457" x="1627.2385" y="1268.1433"/><ellipse cx="1674.5287" cy="1290.7634" fill="#ADD1B2" rx="15.5514" ry="15.5514" style="stroke:#A80036;stroke-width:1.4137606032045238;"/><path d="M1673.9765,1299.4669 Q1671.657,1299.4669 1670.1549,1298.4949 Q1668.6528,1297.5009 1667.9017,1295.7116 Q1667.1728,1293.9002 1667.1728,1291.5145 Q1667.1728,1288.8195 1668.0343,1286.8977 Q1668.9179,1284.9538 1670.6188,1283.9155 Q1672.3418,1282.8773 1674.8159,1282.8773 Q1676.0088,1282.8773 1676.8924,1283.1203 Q1677.776,1283.3412 1678.7038,1283.8051 L1677.6213,1286.478 Q1676.7819,1286.0583 1676.075,1285.9036 Q1675.3682,1285.749 1674.7055,1285.749 Q1673.1592,1285.749 1672.2314,1286.4559 Q1671.3036,1287.1407 1670.906,1288.4219 Q1670.5084,1289.681 1670.5084,1291.382 Q1670.5084,1294.0328 1671.4582,1295.314 Q1672.4081,1296.5952 1674.5287,1296.5952 Q1675.324,1296.5952 1676.1413,1296.3964 Q1676.9807,1296.1976 1678.0852,1295.6895 L1678.0852,1298.6275 Q1677.1133,1299.0693 1676.053,1299.2681 Q1675.0147,1299.4669 1673.9765,1299.4669 Z " fill="#000000"/><text fill="#000000" font-family="Arial" font-size="22.6202" lengthAdjust="spacing" textLength="158.3412" x="1700.1178" y="1298.9754">TipoLogradouro</text><line style="stroke:#A80036;stroke-width:2.120640904806786;" x1="1628.6522" x2="1887.3704" y1="1313.3836" y2="1313.3836"/><ellipse cx="1642.7898" cy="1328.935" rx="4.2413" ry="4.2413" style="stroke:#038048;stroke-width:1.4137606032045238;fill:none;"/><text fill="#000000" font-family="Arial" font-size="22.6202" lengthAdjust="spacing" textLength="224.7879" x="1655.5137" y="1340.2561">siglaLogradouro:String</text><ellipse cx="1642.7898" cy="1354.946" rx="4.2413" ry="4.2413" style="stroke:#038048;stroke-width:1.4137606032045238;fill:none;"/><text fill="#000000" font-family="Arial" font-size="22.6202" lengthAdjust="spacing" textLength="168.2375" x="1655.5137" y="1366.2671">nomeTipo: String</text><line style="stroke:#A80036;stroke-width:2.120640904806786;" x1="1628.6522" x2="1887.3704" y1="1376.7157" y2="1376.7157"/><!--MD5=[ca14770e90121f36cb87a15201ca0ebe]
class Bairro--><rect codeLine="13" fill="#FEFECE" filter="url(#f1rr5mxs1ruyfj)" height="93.8715" id="Bairro" style="stroke:#A80036;stroke-width:2.120640904806786;" width="216.3054" x="928.8407" y="1280.8671"/><ellipse cx="1000.5891" cy="1303.4873" fill="#ADD1B2" rx="15.5514" ry="15.5514" style="stroke:#A80036;stroke-width:1.4137606032045238;"/><path d="M1000.0368,1312.1907 Q997.7174,1312.1907 996.2152,1311.2188 Q994.7131,1310.2247 993.9621,1308.4354 Q993.2331,1306.6241 993.2331,1304.2383 Q993.2331,1301.5434 994.0946,1299.6215 Q994.9782,1297.6776 996.6791,1296.6394 Q998.4022,1295.6011 1000.8762,1295.6011 Q1002.0691,1295.6011 1002.9527,1295.8441 Q1003.8363,1296.065 1004.7641,1296.5289 L1003.6817,1299.2018 Q1002.8422,1298.7821 1002.1354,1298.6275 Q1001.4285,1298.4728 1000.7658,1298.4728 Q999.2195,1298.4728 998.2917,1299.1797 Q997.3639,1299.8645 996.9663,1301.1457 Q996.5687,1302.4049 996.5687,1304.1058 Q996.5687,1306.7566 997.5186,1308.0378 Q998.4684,1309.319 1000.5891,1309.319 Q1001.3843,1309.319 1002.2016,1309.1202 Q1003.0411,1308.9214 1004.1456,1308.4133 L1004.1456,1311.3513 Q1003.1736,1311.7931 1002.1133,1311.9919 Q1001.075,1312.1907 1000.0368,1312.1907 Z " fill="#000000"/><text fill="#000000" font-family="Arial" font-size="22.6202" lengthAdjust="spacing" textLength="60.7917" x="1029.5712" y="1311.6992">Bairro</text><line style="stroke:#A80036;stroke-width:2.120640904806786;" x1="930.2545" x2="1143.7323" y1="1326.1074" y2="1326.1074"/><ellipse cx="944.3921" cy="1341.6588" rx="4.2413" ry="4.2413" style="stroke:#038048;stroke-width:1.4137606032045238;fill:none;"/><text fill="#000000" font-family="Arial" font-size="22.6202" lengthAdjust="spacing" textLength="179.5476" x="957.1159" y="1352.9799">nomeBairro:String</text><line style="stroke:#A80036;stroke-width:2.120640904806786;" x1="930.2545" x2="1143.7323" y1="1363.4285" y2="1363.4285"/><!--MD5=[26e1be3a2d77d5d0f00f7e8c386f4556]
class UnidadeFederacao--><rect codeLine="16" fill="#FEFECE" filter="url(#f1rr5mxs1ruyfj)" height="119.8825" id="UnidadeFederacao" style="stroke:#A80036;stroke-width:2.120640904806786;" width="237.5118" x="1270.9708" y="1268.1433"/><ellipse cx="1292.1772" cy="1290.7634" fill="#ADD1B2" rx="15.5514" ry="15.5514" style="stroke:#A80036;stroke-width:1.4137606032045238;"/><path d="M1291.6249,1299.4669 Q1289.3055,1299.4669 1287.8034,1298.4949 Q1286.3012,1297.5009 1285.5502,1295.7116 Q1284.8212,1293.9002 1284.8212,1291.5145 Q1284.8212,1288.8195 1285.6827,1286.8977 Q1286.5663,1284.9538 1288.2673,1283.9155 Q1289.9903,1282.8773 1292.4644,1282.8773 Q1293.6572,1282.8773 1294.5408,1283.1203 Q1295.4244,1283.3412 1296.3522,1283.8051 L1295.2698,1286.478 Q1294.4304,1286.0583 1293.7235,1285.9036 Q1293.0166,1285.749 1292.3539,1285.749 Q1290.8076,1285.749 1289.8798,1286.4559 Q1288.952,1287.1407 1288.5544,1288.4219 Q1288.1568,1289.681 1288.1568,1291.382 Q1288.1568,1294.0328 1289.1067,1295.314 Q1290.0566,1296.5952 1292.1772,1296.5952 Q1292.9724,1296.5952 1293.7898,1296.3964 Q1294.6292,1296.1976 1295.7337,1295.6895 L1295.7337,1298.6275 Q1294.7617,1299.0693 1293.7014,1299.2681 Q1292.6632,1299.4669 1291.6249,1299.4669 Z " fill="#000000"/><text fill="#000000" font-family="Arial" font-size="22.6202" lengthAdjust="spacing" textLength="192.2714" x="1311.9698" y="1298.9754">UnidadeFederacao</text><line style="stroke:#A80036;stroke-width:2.120640904806786;" x1="1272.3845" x2="1507.0688" y1="1313.3836" y2="1313.3836"/><ellipse cx="1286.5221" cy="1328.935" rx="4.2413" ry="4.2413" style="stroke:#038048;stroke-width:1.4137606032045238;fill:none;"/><text fill="#000000" font-family="Arial" font-size="22.6202" lengthAdjust="spacing" textLength="139.9623" x="1299.246" y="1340.2561">siglaUF:String</text><ellipse cx="1286.5221" cy="1354.946" rx="4.2413" ry="4.2413" style="stroke:#038048;stroke-width:1.4137606032045238;fill:none;"/><text fill="#000000" font-family="Arial" font-size="22.6202" lengthAdjust="spacing" textLength="148.4449" x="1299.246" y="1366.2671">nomeUF:String</text><line style="stroke:#A80036;stroke-width:2.120640904806786;" x1="1272.3845" x2="1507.0688" y1="1376.7157" y2="1376.7157"/><!--MD5=[a4f84729eeb8db9a6fa87ef9886a0837]
class EnderecoEspecifico--><rect codeLine="31" fill="#FEFECE" filter="url(#f1rr5mxs1ruyfj)" height="119.8825" id="EnderecoEspecifico" style="stroke:#A80036;stroke-width:2.120640904806786;" width="245.9943" x="1194.6277" y="626.2959"/><ellipse cx="1215.8341" cy="648.9161" fill="#ADD1B2" rx="15.5514" ry="15.5514" style="stroke:#A80036;stroke-width:1.4137606032045238;"/><path d="M1215.2819,657.6196 Q1212.9624,657.6196 1211.4603,656.6476 Q1209.9582,655.6536 1209.2071,653.8643 Q1208.4781,652.0529 1208.4781,649.6672 Q1208.4781,646.9722 1209.3397,645.0504 Q1210.2233,643.1064 1211.9242,642.0682 Q1213.6472,641.03 1216.1213,641.03 Q1217.3141,641.03 1218.1977,641.273 Q1219.0814,641.4939 1220.0091,641.9578 L1218.9267,644.6307 Q1218.0873,644.2109 1217.3804,644.0563 Q1216.6735,643.9017 1216.0108,643.9017 Q1214.4645,643.9017 1213.5368,644.6086 Q1212.609,645.2934 1212.2114,646.5746 Q1211.8137,647.8337 1211.8137,649.5346 Q1211.8137,652.1854 1212.7636,653.4667 Q1213.7135,654.7479 1215.8341,654.7479 Q1216.6294,654.7479 1217.4467,654.5491 Q1218.2861,654.3503 1219.3906,653.8422 L1219.3906,656.7802 Q1218.4186,657.222 1217.3583,657.4208 Q1216.3201,657.6196 1215.2819,657.6196 Z " fill="#000000"/><text fill="#000000" font-family="Arial" font-size="22.6202" lengthAdjust="spacing" textLength="200.754" x="1235.6268" y="657.1281">EnderecoEspecifico</text><line style="stroke:#A80036;stroke-width:2.120640904806786;" x1="1196.0415" x2="1439.2083" y1="671.5363" y2="671.5363"/><ellipse cx="1210.1791" cy="687.0877" rx="4.2413" ry="4.2413" style="stroke:#038048;stroke-width:1.4137606032045238;fill:none;"/><text fill="#000000" font-family="Arial" font-size="22.6202" lengthAdjust="spacing" textLength="173.8926" x="1222.9029" y="698.4088">nroLogradouro:int</text><ellipse cx="1210.1791" cy="713.0986" rx="4.2413" ry="4.2413" style="stroke:#038048;stroke-width:1.4137606032045238;fill:none;"/><text fill="#000000" font-family="Arial" font-size="22.6202" lengthAdjust="spacing" textLength="196.5127" x="1222.9029" y="724.4198">complemento:String</text><line style="stroke:#A80036;stroke-width:2.120640904806786;" x1="1196.0415" x2="1439.2083" y1="734.8683" y2="734.8683"/><!--MD5=[ec4e9ac521a71f7b069122f6baf1b57e]
class Pessoa--><rect codeLine="36" fill="#FEFECE" filter="url(#f1rr5mxs1ruyfj)" height="119.8825" id="Pessoa" style="stroke:#A80036;stroke-width:2.120640904806786;" width="155.5137" x="931.6682" y="284.8728"/><ellipse cx="968.1433" cy="307.4929" fill="#ADD1B2" rx="15.5514" ry="15.5514" style="stroke:#A80036;stroke-width:1.4137606032045238;"/><path d="M967.591,316.1964 Q965.2716,316.1964 963.7694,315.2244 Q962.2673,314.2304 961.5163,312.4411 Q960.7873,310.6297 960.7873,308.244 Q960.7873,305.549 961.6488,303.6272 Q962.5324,301.6833 964.2333,300.645 Q965.9564,299.6068 968.4304,299.6068 Q969.6233,299.6068 970.5069,299.8498 Q971.3905,300.0707 972.3183,300.5346 L971.2359,303.2075 Q970.3964,302.7878 969.6896,302.6331 Q968.9827,302.4785 968.32,302.4785 Q966.7737,302.4785 965.8459,303.1854 Q964.9181,303.8702 964.5205,305.1514 Q964.1229,306.4105 964.1229,308.1115 Q964.1229,310.7623 965.0727,312.0435 Q966.0226,313.3247 968.1433,313.3247 Q968.9385,313.3247 969.7558,313.1259 Q970.5953,312.9271 971.6998,312.419 L971.6998,315.357 Q970.7278,315.7988 969.6675,315.9976 Q968.6292,316.1964 967.591,316.1964 Z " fill="#000000"/><text fill="#000000" font-family="Arial" font-size="22.6202" lengthAdjust="spacing" textLength="76.3431" x="991.3289" y="315.7049">Pessoa</text><line style="stroke:#A80036;stroke-width:2.120640904806786;" x1="933.082" x2="1085.7681" y1="330.1131" y2="330.1131"/><ellipse cx="947.2196" cy="345.6645" rx="4.2413" ry="4.2413" style="stroke:#038048;stroke-width:1.4137606032045238;fill:none;"/><text fill="#000000" font-family="Arial" font-size="22.6202" lengthAdjust="spacing" textLength="118.7559" x="959.9434" y="356.9856">nome:String</text><ellipse cx="947.2196" cy="371.6755" rx="4.2413" ry="4.2413" style="stroke:#038048;stroke-width:1.4137606032045238;fill:none;"/><text fill="#000000" font-family="Arial" font-size="22.6202" lengthAdjust="spacing" textLength="117.3421" x="959.9434" y="382.9966">nomeSocial</text><line style="stroke:#A80036;stroke-width:2.120640904806786;" x1="933.082" x2="1085.7681" y1="393.4452" y2="393.4452"/><!--MD5=[d3ab6e9d4e55b8cfc3115433358d146e]
class PessoaFisica--><rect codeLine="40" fill="#FEFECE" filter="url(#f1rr5mxs1ruyfj)" height="249.9374" id="PessoaFisica" style="stroke:#A80036;stroke-width:2.120640904806786;" width="251.6494" x="373.2328" y="561.263"/><ellipse cx="425.6126" cy="583.8831" fill="#ADD1B2" rx="15.5514" ry="15.5514" style="stroke:#A80036;stroke-width:1.4137606032045238;"/><path d="M425.0604,592.5866 Q422.7409,592.5866 421.2388,591.6146 Q419.7367,590.6206 418.9856,588.8313 Q418.2567,587.0199 418.2567,584.6342 Q418.2567,581.9392 419.1182,580.0174 Q420.0018,578.0735 421.7027,577.0352 Q423.4257,575.997 425.8998,575.997 Q427.0927,575.997 427.9763,576.24 Q428.8599,576.4609 429.7876,576.9248 L428.7052,579.5977 Q427.8658,579.178 427.1589,579.0233 Q426.452,578.8687 425.7893,578.8687 Q424.243,578.8687 423.3153,579.5756 Q422.3875,580.2604 421.9899,581.5416 Q421.5922,582.8007 421.5922,584.5016 Q421.5922,587.1525 422.5421,588.4337 Q423.492,589.7149 425.6126,589.7149 Q426.4079,589.7149 427.2252,589.5161 Q428.0646,589.3173 429.1691,588.8092 L429.1691,591.7472 Q428.1972,592.189 427.1368,592.3878 Q426.0986,592.5866 425.0604,592.5866 Z " fill="#000000"/><text fill="#000000" font-family="Arial" font-size="22.6202" lengthAdjust="spacing" textLength="137.1348" x="452.3327" y="592.0951">PessoaFisica</text><line style="stroke:#A80036;stroke-width:2.120640904806786;" x1="374.6466" x2="623.4684" y1="606.5033" y2="606.5033"/><ellipse cx="388.7842" cy="622.0547" rx="4.2413" ry="4.2413" style="stroke:#038048;stroke-width:1.4137606032045238;fill:none;"/><text fill="#000000" font-family="Arial" font-size="22.6202" lengthAdjust="spacing" textLength="93.3082" x="401.508" y="633.3758">cpf:String</text><ellipse cx="388.7842" cy="648.0657" rx="4.2413" ry="4.2413" style="stroke:#038048;stroke-width:1.4137606032045238;fill:none;"/><text fill="#000000" font-family="Arial" font-size="22.6202" lengthAdjust="spacing" textLength="204.9953" x="401.508" y="659.3868">primeiroNome:String</text><ellipse cx="388.7842" cy="674.0766" rx="4.2413" ry="4.2413" style="stroke:#038048;stroke-width:1.4137606032045238;fill:none;"/><text fill="#000000" font-family="Arial" font-size="22.6202" lengthAdjust="spacing" textLength="179.5476" x="401.508" y="685.3978">sobreNome:String</text><ellipse cx="388.7842" cy="700.0876" rx="4.2413" ry="4.2413" style="stroke:#038048;stroke-width:1.4137606032045238;fill:none;"/><text fill="#000000" font-family="Arial" font-size="22.6202" lengthAdjust="spacing" textLength="214.8916" x="401.508" y="711.4088">dataNascimento:Date</text><ellipse cx="388.7842" cy="726.0986" rx="4.2413" ry="4.2413" style="stroke:#038048;stroke-width:1.4137606032045238;fill:none;"/><text fill="#000000" font-family="Arial" font-size="22.6202" lengthAdjust="spacing" textLength="206.409" x="401.508" y="737.4197">tipoSanguineo:String</text><ellipse cx="388.7842" cy="752.1096" rx="4.2413" ry="4.2413" style="stroke:#038048;stroke-width:1.4137606032045238;fill:none;"/><text fill="#000000" font-family="Arial" font-size="22.6202" lengthAdjust="spacing" textLength="122.9972" x="401.508" y="763.4307">fatorRH:char</text><ellipse cx="388.7842" cy="778.1206" rx="4.2413" ry="4.2413" style="stroke:#038048;stroke-width:1.4137606032045238;fill:none;"/><text fill="#000000" font-family="Arial" font-size="22.6202" lengthAdjust="spacing" textLength="110.2733" x="401.508" y="789.4417">sexo:String</text><line style="stroke:#A80036;stroke-width:2.120640904806786;" x1="374.6466" x2="623.4684" y1="799.8903" y2="799.8903"/><!--MD5=[02dbf2197224a6e75affa36398a9776b]
class PessoaJuridica--><rect codeLine="49" fill="#FEFECE" filter="url(#f1rr5mxs1ruyfj)" height="119.8825" id="PessoaJuridica" style="stroke:#A80036;stroke-width:2.120640904806786;" width="199.3402" x="2052.7804" y="626.2959"/><ellipse cx="2073.9868" cy="648.9161" fill="#ADD1B2" rx="15.5514" ry="15.5514" style="stroke:#A80036;stroke-width:1.4137606032045238;"/><path d="M2073.4346,657.6196 Q2071.1151,657.6196 2069.613,656.6476 Q2068.1109,655.6536 2067.3598,653.8643 Q2066.6308,652.0529 2066.6308,649.6672 Q2066.6308,646.9722 2067.4923,645.0504 Q2068.3759,643.1064 2070.0769,642.0682 Q2071.7999,641.03 2074.274,641.03 Q2075.4668,641.03 2076.3504,641.273 Q2077.234,641.4939 2078.1618,641.9578 L2077.0794,644.6307 Q2076.24,644.2109 2075.5331,644.0563 Q2074.8262,643.9017 2074.1635,643.9017 Q2072.6172,643.9017 2071.6894,644.6086 Q2070.7617,645.2934 2070.364,646.5746 Q2069.9664,647.8337 2069.9664,649.5346 Q2069.9664,652.1854 2070.9163,653.4667 Q2071.8662,654.7479 2073.9868,654.7479 Q2074.782,654.7479 2075.5994,654.5491 Q2076.4388,654.3503 2077.5433,653.8422 L2077.5433,656.7802 Q2076.5713,657.222 2075.511,657.4208 Q2074.4728,657.6196 2073.4346,657.6196 Z " fill="#000000"/><text fill="#000000" font-family="Arial" font-size="22.6202" lengthAdjust="spacing" textLength="154.0999" x="2093.7795" y="657.1281">PessoaJuridica</text><line style="stroke:#A80036;stroke-width:2.120640904806786;" x1="2054.1942" x2="2250.7069" y1="671.5363" y2="671.5363"/><ellipse cx="2068.3318" cy="687.0877" rx="4.2413" ry="4.2413" style="stroke:#038048;stroke-width:1.4137606032045238;fill:none;"/><text fill="#000000" font-family="Arial" font-size="22.6202" lengthAdjust="spacing" textLength="103.2045" x="2081.0556" y="698.4088">cnpj:String</text><ellipse cx="2068.3318" cy="713.0986" rx="4.2413" ry="4.2413" style="stroke:#038048;stroke-width:1.4137606032045238;fill:none;"/><text fill="#000000" font-family="Arial" font-size="22.6202" lengthAdjust="spacing" textLength="81.9981" x="2081.0556" y="724.4198">ie:String</text><line style="stroke:#A80036;stroke-width:2.120640904806786;" x1="2054.1942" x2="2250.7069" y1="734.8683" y2="734.8683"/><!--MD5=[78bec0fde86ad92ec1dc3fb343b83709]
class Email--><rect codeLine="53" fill="#FEFECE" filter="url(#f1rr5mxs1ruyfj)" height="93.8715" id="Email" style="stroke:#A80036;stroke-width:2.120640904806786;" width="149.8586" x="708.2941" y="639.0198"/><ellipse cx="751.131" cy="661.64" fill="#ADD1B2" rx="15.5514" ry="15.5514" style="stroke:#A80036;stroke-width:1.4137606032045238;"/><path d="M750.5788,670.3434 Q748.2593,670.3434 746.7572,669.3715 Q745.2551,668.3774 744.504,666.5881 Q743.775,664.7767 743.775,662.391 Q743.775,659.696 744.6365,657.7742 Q745.5201,655.8303 747.2211,654.7921 Q748.9441,653.7538 751.4182,653.7538 Q752.611,653.7538 753.4946,653.9968 Q754.3782,654.2177 755.306,654.6816 L754.2236,657.3545 Q753.3842,656.9348 752.6773,656.7802 Q751.9704,656.6255 751.3077,656.6255 Q749.7614,656.6255 748.8336,657.3324 Q747.9059,658.0172 747.5082,659.2984 Q747.1106,660.5576 747.1106,662.2585 Q747.1106,664.9093 748.0605,666.1905 Q749.0104,667.4717 751.131,667.4717 Q751.9262,667.4717 752.7436,667.2729 Q753.583,667.0741 754.6875,666.566 L754.6875,669.504 Q753.7155,669.9458 752.6552,670.1446 Q751.617,670.3434 750.5788,670.3434 Z " fill="#000000"/><text fill="#000000" font-family="Arial" font-size="22.6202" lengthAdjust="spacing" textLength="56.5504" x="775.7304" y="669.8519">Email</text><line style="stroke:#A80036;stroke-width:2.120640904806786;" x1="709.7078" x2="856.7389" y1="684.2601" y2="684.2601"/><ellipse cx="723.8454" cy="699.8115" rx="4.2413" ry="4.2413" style="stroke:#038048;stroke-width:1.4137606032045238;fill:none;"/><text fill="#000000" font-family="Arial" font-size="22.6202" lengthAdjust="spacing" textLength="113.1008" x="736.5693" y="711.1326">email:string</text><line style="stroke:#A80036;stroke-width:2.120640904806786;" x1="709.7078" x2="856.7389" y1="721.5812" y2="721.5812"/><!--MD5=[46a372ef3deabf593267630783719183]
class Celular--><rect codeLine="56" fill="#FEFECE" filter="url(#f1rr5mxs1ruyfj)" height="171.9045" id="Celular" style="stroke:#A80036;stroke-width:2.120640904806786;" width="202.1678" x="908.3412" y="599.4345"/><ellipse cx="968.9915" cy="622.0547" fill="#ADD1B2" rx="15.5514" ry="15.5514" style="stroke:#A80036;stroke-width:1.4137606032045238;"/><path d="M968.4393,630.7581 Q966.1198,630.7581 964.6177,629.7862 Q963.1156,628.7921 962.3645,627.0028 Q961.6355,625.1914 961.6355,622.8057 Q961.6355,620.1107 962.4971,618.1889 Q963.3807,616.245 965.0816,615.2068 Q966.8046,614.1685 969.2787,614.1685 Q970.4715,614.1685 971.3551,614.4115 Q972.2387,614.6324 973.1665,615.0963 L972.0841,617.7692 Q971.2447,617.3495 970.5378,617.1949 Q969.8309,617.0402 969.1682,617.0402 Q967.6219,617.0402 966.6942,617.7471 Q965.7664,618.4319 965.3688,619.7131 Q964.9711,620.9723 964.9711,622.6732 Q964.9711,625.324 965.921,626.6052 Q966.8709,627.8864 968.9915,627.8864 Q969.7868,627.8864 970.6041,627.6876 Q971.4435,627.4888 972.548,626.9807 L972.548,629.9187 Q971.576,630.3605 970.5157,630.5593 Q969.4775,630.7581 968.4393,630.7581 Z " fill="#000000"/><text fill="#000000" font-family="Arial" font-size="22.6202" lengthAdjust="spacing" textLength="69.2743" x="997.5495" y="630.2666">Celular</text><line style="stroke:#A80036;stroke-width:2.120640904806786;" x1="909.7549" x2="1109.0952" y1="644.6748" y2="644.6748"/><ellipse cx="923.8926" cy="660.2262" rx="4.2413" ry="4.2413" style="stroke:#038048;stroke-width:1.4137606032045238;fill:none;"/><text fill="#000000" font-family="Arial" font-size="22.6202" lengthAdjust="spacing" textLength="163.9962" x="936.6164" y="671.5473">nroCelular:String</text><ellipse cx="923.8926" cy="686.2372" rx="4.2413" ry="4.2413" style="stroke:#038048;stroke-width:1.4137606032045238;fill:none;"/><text fill="#000000" font-family="Arial" font-size="22.6202" lengthAdjust="spacing" textLength="165.41" x="936.6164" y="697.5583">isWhatsapp:bool</text><ellipse cx="923.8926" cy="712.2482" rx="4.2413" ry="4.2413" style="stroke:#038048;stroke-width:1.4137606032045238;fill:none;"/><text fill="#000000" font-family="Arial" font-size="22.6202" lengthAdjust="spacing" textLength="79.1706" x="936.6164" y="723.5693">DDD:int</text><ellipse cx="923.8926" cy="738.2592" rx="4.2413" ry="4.2413" style="stroke:#038048;stroke-width:1.4137606032045238;fill:none;"/><text fill="#000000" font-family="Arial" font-size="22.6202" lengthAdjust="spacing" textLength="66.4467" x="936.6164" y="749.5803">DDI:int</text><line style="stroke:#A80036;stroke-width:2.120640904806786;" x1="909.7549" x2="1109.0952" y1="760.0289" y2="760.0289"/><!--MD5=[4db2dc1043fe159ed231e5a6ca75c535]
class RGPessoal--><rect codeLine="62" fill="#FEFECE" filter="url(#f1rr5mxs1ruyfj)" height="145.8935" id="RGPessoal" style="stroke:#A80036;stroke-width:2.120640904806786;" width="339.3025" x="329.4062" y="980.443"/><ellipse cx="436.4986" cy="1003.0631" fill="#ADD1B2" rx="15.5514" ry="15.5514" style="stroke:#A80036;stroke-width:1.4137606032045238;"/><path d="M435.9463,1011.7666 Q433.6269,1011.7666 432.1248,1010.7947 Q430.6226,1009.8006 429.8716,1008.0113 Q429.1426,1006.1999 429.1426,1003.8142 Q429.1426,1001.1192 430.0041,999.1974 Q430.8877,997.2535 432.5887,996.2152 Q434.3117,995.177 436.7858,995.177 Q437.9786,995.177 438.8622,995.42 Q439.7458,995.6409 440.6736,996.1048 L439.5912,998.7777 Q438.7518,998.358 438.0449,998.2033 Q437.338,998.0487 436.6753,998.0487 Q435.129,998.0487 434.2012,998.7556 Q433.2734,999.4404 432.8758,1000.7216 Q432.4782,1001.9807 432.4782,1003.6817 Q432.4782,1006.3325 433.4281,1007.6137 Q434.3779,1008.8949 436.4986,1008.8949 Q437.2938,1008.8949 438.1112,1008.6961 Q438.9506,1008.4973 440.0551,1007.9892 L440.0551,1010.9272 Q439.0831,1011.369 438.0228,1011.5678 Q436.9846,1011.7666 435.9463,1011.7666 Z " fill="#000000"/><text fill="#000000" font-family="Arial" font-size="22.6202" lengthAdjust="spacing" textLength="113.1008" x="465.4807" y="1011.2751">RGPessoal</text><line style="stroke:#A80036;stroke-width:2.120640904806786;" x1="330.82" x2="667.295" y1="1025.6833" y2="1025.6833"/><ellipse cx="344.9576" cy="1041.2347" rx="4.2413" ry="4.2413" style="stroke:#038048;stroke-width:1.4137606032045238;fill:none;"/><text fill="#000000" font-family="Arial" font-size="22.6202" lengthAdjust="spacing" textLength="127.2385" x="357.6814" y="1052.5558">nroRG:String</text><ellipse cx="344.9576" cy="1067.2457" rx="4.2413" ry="4.2413" style="stroke:#038048;stroke-width:1.4137606032045238;fill:none;"/><text fill="#000000" font-family="Arial" font-size="22.6202" lengthAdjust="spacing" textLength="195.099" x="357.6814" y="1078.5668">dataEmissao:String</text><ellipse cx="344.9576" cy="1093.2567" rx="4.2413" ry="4.2413" style="stroke:#038048;stroke-width:1.4137606032045238;fill:none;"/><text fill="#000000" font-family="Arial" font-size="22.6202" lengthAdjust="spacing" textLength="302.5448" x="357.6814" y="1104.5778">ufEmissao:UnidadeFederacao</text><line style="stroke:#A80036;stroke-width:2.120640904806786;" x1="330.82" x2="667.295" y1="1115.0264" y2="1115.0264"/><!--MD5=[e58b328d98718587d2cf25b4c2010115]
class Paciente--><rect codeLine="67" fill="#FEFECE" filter="url(#f1rr5mxs1ruyfj)" height="67.8605" id="Paciente" style="stroke:#A80036;stroke-width:2.120640904806786;" width="132.8935" x="390.1979" y="311.0273"/><ellipse cx="411.4043" cy="333.6475" fill="#ADD1B2" rx="15.5514" ry="15.5514" style="stroke:#A80036;stroke-width:1.4137606032045238;"/><path d="M410.8521,342.351 Q408.5326,342.351 407.0305,341.379 Q405.5284,340.385 404.7773,338.5957 Q404.0484,336.7843 404.0484,334.3986 Q404.0484,331.7036 404.9099,329.7818 Q405.7935,327.8378 407.4944,326.7996 Q409.2174,325.7614 411.6915,325.7614 Q412.8844,325.7614 413.768,326.0044 Q414.6516,326.2253 415.5793,326.6891 L414.4969,329.362 Q413.6575,328.9423 412.9506,328.7877 Q412.2438,328.6331 411.5811,328.6331 Q410.0348,328.6331 409.107,329.34 Q408.1792,330.0247 407.7816,331.306 Q407.384,332.5651 407.384,334.266 Q407.384,336.9168 408.3338,338.198 Q409.2837,339.4793 411.4043,339.4793 Q412.1996,339.4793 413.0169,339.2805 Q413.8563,339.0816 414.9608,338.5736 L414.9608,341.5115 Q413.9889,341.9533 412.9285,342.1522 Q411.8903,342.351 410.8521,342.351 Z " fill="#000000"/><text fill="#000000" font-family="Arial" font-size="22.6202" lengthAdjust="spacing" textLength="87.6532" x="431.197" y="341.8595">Paciente</text><line style="stroke:#A80036;stroke-width:2.120640904806786;" x1="391.6117" x2="521.6777" y1="356.2677" y2="356.2677"/><line style="stroke:#A80036;stroke-width:2.120640904806786;" x1="391.6117" x2="521.6777" y1="367.5778" y2="367.5778"/><!--MD5=[aa5bbbe51933d9af291db0ed1115076d]
class Consulta--><rect codeLine="68" fill="#FEFECE" filter="url(#f1rr5mxs1ruyfj)" height="119.8825" id="Consulta" style="stroke:#A80036;stroke-width:2.120640904806786;" width="220.5467" x="180.9614" y="9.8963"/><ellipse cx="242.2479" cy="32.5165" fill="#ADD1B2" rx="15.5514" ry="15.5514" style="stroke:#A80036;stroke-width:1.4137606032045238;"/><path d="M241.6956,41.22 Q239.3762,41.22 237.8741,40.248 Q236.3719,39.2539 235.6209,37.4647 Q234.8919,35.6533 234.8919,33.2676 Q234.8919,30.5726 235.7534,28.6507 Q236.637,26.7068 238.3379,25.6686 Q240.061,24.6304 242.535,24.6304 Q243.7279,24.6304 244.6115,24.8734 Q245.4951,25.0943 246.4229,25.5581 L245.3405,28.231 Q244.5011,27.8113 243.7942,27.6567 Q243.0873,27.5021 242.4246,27.5021 Q240.8783,27.5021 239.9505,28.2089 Q239.0227,28.8937 238.6251,30.175 Q238.2275,31.4341 238.2275,33.135 Q238.2275,35.7858 239.1774,37.067 Q240.1272,38.3483 242.2479,38.3483 Q243.0431,38.3483 243.8605,38.1494 Q244.6999,37.9506 245.8044,37.4426 L245.8044,40.3805 Q244.8324,40.8223 243.7721,41.0211 Q242.7339,41.22 241.6956,41.22 Z " fill="#000000"/><text fill="#000000" font-family="Arial" font-size="22.6202" lengthAdjust="spacing" textLength="86.2394" x="270.9472" y="40.7285">Consulta</text><line style="stroke:#A80036;stroke-width:2.120640904806786;" x1="182.3751" x2="400.0943" y1="55.1367" y2="55.1367"/><ellipse cx="196.5127" cy="70.688" rx="4.2413" ry="4.2413" style="stroke:#038048;stroke-width:1.4137606032045238;fill:none;"/><text fill="#000000" font-family="Arial" font-size="22.6202" lengthAdjust="spacing" textLength="183.7889" x="209.2366" y="82.0092">dataConsulta:Date</text><ellipse cx="196.5127" cy="96.699" rx="4.2413" ry="4.2413" style="stroke:#038048;stroke-width:1.4137606032045238;fill:none;"/><text fill="#000000" font-family="Arial" font-size="22.6202" lengthAdjust="spacing" textLength="145.6173" x="209.2366" y="108.0201">nroConsulta:int</text><line style="stroke:#A80036;stroke-width:2.120640904806786;" x1="182.3751" x2="400.0943" y1="118.4687" y2="118.4687"/><!--MD5=[817ab6f3247f71b41c6d650220419774]
class PrescricaoMedica--><rect codeLine="72" fill="#FEFECE" filter="url(#f1rr5mxs1ruyfj)" height="93.8715" id="PrescricaoMedica" style="stroke:#A80036;stroke-width:2.120640904806786;" width="226.2017" x="29.689" y="298.3035"/><ellipse cx="50.8954" cy="320.9237" fill="#ADD1B2" rx="15.5514" ry="15.5514" style="stroke:#A80036;stroke-width:1.4137606032045238;"/><path d="M50.3431,329.6271 Q48.0237,329.6271 46.5216,328.6552 Q45.0194,327.6611 44.2684,325.8718 Q43.5394,324.0604 43.5394,321.6747 Q43.5394,318.9797 44.4009,317.0579 Q45.2845,315.114 46.9855,314.0758 Q48.7085,313.0375 51.1826,313.0375 Q52.3754,313.0375 53.259,313.2805 Q54.1426,313.5014 55.0704,313.9653 L53.988,316.6382 Q53.1486,316.2185 52.4417,316.0639 Q51.7348,315.9092 51.0721,315.9092 Q49.5258,315.9092 48.598,316.6161 Q47.6702,317.3009 47.2726,318.5821 Q46.875,319.8412 46.875,321.5422 Q46.875,324.193 47.8249,325.4742 Q48.7747,326.7554 50.8954,326.7554 Q51.6906,326.7554 52.508,326.5566 Q53.3474,326.3578 54.4519,325.8497 L54.4519,328.7877 Q53.4799,329.2295 52.4196,329.4283 Q51.3814,329.6271 50.3431,329.6271 Z " fill="#000000"/><text fill="#000000" font-family="Arial" font-size="22.6202" lengthAdjust="spacing" textLength="180.9614" x="70.688" y="329.1356">PrescricaoMedica</text><line style="stroke:#A80036;stroke-width:2.120640904806786;" x1="31.1027" x2="254.4769" y1="343.5438" y2="343.5438"/><ellipse cx="45.2403" cy="359.0952" rx="4.2413" ry="4.2413" style="stroke:#038048;stroke-width:1.4137606032045238;fill:none;"/><text fill="#000000" font-family="Arial" font-size="22.6202" lengthAdjust="spacing" textLength="161.1687" x="57.9642" y="370.4163">posologia:String</text><line style="stroke:#A80036;stroke-width:2.120640904806786;" x1="31.1027" x2="254.4769" y1="380.8649" y2="380.8649"/><!--MD5=[612cc4bf6ca9d0fee3339516f54b933e]
class Remedio--><rect codeLine="75" fill="#FEFECE" filter="url(#f1rr5mxs1ruyfj)" height="93.8715" id="Remedio" style="stroke:#A80036;stroke-width:2.120640904806786;" width="245.9943" x="9.8963" y="639.0198"/><ellipse cx="81.6447" cy="661.64" fill="#ADD1B2" rx="15.5514" ry="15.5514" style="stroke:#A80036;stroke-width:1.4137606032045238;"/><path d="M81.0924,670.3434 Q78.773,670.3434 77.2709,669.3715 Q75.7687,668.3774 75.0177,666.5881 Q74.2887,664.7767 74.2887,662.391 Q74.2887,659.696 75.1502,657.7742 Q76.0338,655.8303 77.7347,654.7921 Q79.4578,653.7538 81.9318,653.7538 Q83.1247,653.7538 84.0083,653.9968 Q84.8919,654.2177 85.8197,654.6816 L84.7373,657.3545 Q83.8979,656.9348 83.191,656.7802 Q82.4841,656.6255 81.8214,656.6255 Q80.2751,656.6255 79.3473,657.3324 Q78.4195,658.0172 78.0219,659.2984 Q77.6243,660.5576 77.6243,662.2585 Q77.6243,664.9093 78.5742,666.1905 Q79.524,667.4717 81.6447,667.4717 Q82.4399,667.4717 83.2572,667.2729 Q84.0967,667.0741 85.2012,666.566 L85.2012,669.504 Q84.2292,669.9458 83.1689,670.1446 Q82.1307,670.3434 81.0924,670.3434 Z " fill="#000000"/><text fill="#000000" font-family="Arial" font-size="22.6202" lengthAdjust="spacing" textLength="90.4807" x="110.6268" y="669.8519">Remedio</text><line style="stroke:#A80036;stroke-width:2.120640904806786;" x1="11.3101" x2="254.4769" y1="684.2601" y2="684.2601"/><ellipse cx="25.4477" cy="699.8115" rx="4.2413" ry="4.2413" style="stroke:#038048;stroke-width:1.4137606032045238;fill:none;"/><text fill="#000000" font-family="Arial" font-size="22.6202" lengthAdjust="spacing" textLength="209.2366" x="38.1715" y="711.1326">nomeRemedio:String</text><line style="stroke:#A80036;stroke-width:2.120640904806786;" x1="11.3101" x2="254.4769" y1="721.5812" y2="721.5812"/><!--MD5=[5b0945d094f0812fdd8c9a06da7a670d]
class Medico--><rect codeLine="78" fill="#FEFECE" filter="url(#f1rr5mxs1ruyfj)" height="67.8605" id="Medico" style="stroke:#A80036;stroke-width:2.120640904806786;" width="118.7559" x="2417.5306" y="311.0273"/><ellipse cx="2438.737" cy="333.6475" fill="#ADD1B2" rx="15.5514" ry="15.5514" style="stroke:#A80036;stroke-width:1.4137606032045238;"/><path d="M2438.1848,342.351 Q2435.8653,342.351 2434.3632,341.379 Q2432.8611,340.385 2432.11,338.5957 Q2431.3811,336.7843 2431.3811,334.3986 Q2431.3811,331.7036 2432.2426,329.7818 Q2433.1262,327.8378 2434.8271,326.7996 Q2436.5501,325.7614 2439.0242,325.7614 Q2440.2171,325.7614 2441.1007,326.0044 Q2441.9843,326.2253 2442.9121,326.6891 L2441.8296,329.362 Q2440.9902,328.9423 2440.2833,328.7877 Q2439.5765,328.6331 2438.9138,328.6331 Q2437.3675,328.6331 2436.4397,329.34 Q2435.5119,330.0247 2435.1143,331.306 Q2434.7167,332.5651 2434.7167,334.266 Q2434.7167,336.9168 2435.6665,338.198 Q2436.6164,339.4793 2438.737,339.4793 Q2439.5323,339.4793 2440.3496,339.2805 Q2441.189,339.0816 2442.2935,338.5736 L2442.2935,341.5115 Q2441.3216,341.9533 2440.2613,342.1522 Q2439.223,342.351 2438.1848,342.351 Z " fill="#000000"/><text fill="#000000" font-family="Arial" font-size="22.6202" lengthAdjust="spacing" textLength="73.5156" x="2458.5297" y="341.8595">Medico</text><line style="stroke:#A80036;stroke-width:2.120640904806786;" x1="2418.9444" x2="2534.8728" y1="356.2677" y2="356.2677"/><line style="stroke:#A80036;stroke-width:2.120640904806786;" x1="2418.9444" x2="2534.8728" y1="367.5778" y2="367.5778"/><!--MD5=[3ef16116ccfcd073eee65e74a62069b4]
class CRM--><rect codeLine="79" fill="#FEFECE" filter="url(#f1rr5mxs1ruyfj)" height="119.8825" id="CRM" style="stroke:#A80036;stroke-width:2.120640904806786;" width="214.8916" x="2369.4628" y="626.2959"/><ellipse cx="2445.4524" cy="648.9161" fill="#ADD1B2" rx="15.5514" ry="15.5514" style="stroke:#A80036;stroke-width:1.4137606032045238;"/><path d="M2444.9002,657.6196 Q2442.5807,657.6196 2441.0786,656.6476 Q2439.5765,655.6536 2438.8254,653.8643 Q2438.0964,652.0529 2438.0964,649.6672 Q2438.0964,646.9722 2438.9579,645.0504 Q2439.8415,643.1064 2441.5425,642.0682 Q2443.2655,641.03 2445.7396,641.03 Q2446.9324,641.03 2447.816,641.273 Q2448.6996,641.4939 2449.6274,641.9578 L2448.545,644.6307 Q2447.7056,644.2109 2446.9987,644.0563 Q2446.2918,643.9017 2445.6291,643.9017 Q2444.0828,643.9017 2443.155,644.6086 Q2442.2273,645.2934 2441.8296,646.5746 Q2441.432,647.8337 2441.432,649.5346 Q2441.432,652.1854 2442.3819,653.4667 Q2443.3318,654.7479 2445.4524,654.7479 Q2446.2476,654.7479 2447.065,654.5491 Q2447.9044,654.3503 2449.0089,653.8422 L2449.0089,656.7802 Q2448.0369,657.222 2446.9766,657.4208 Q2445.9384,657.6196 2444.9002,657.6196 Z " fill="#000000"/><text fill="#000000" font-family="Arial" font-size="22.6202" lengthAdjust="spacing" textLength="50.8954" x="2474.4345" y="657.1281">CRM</text><line style="stroke:#A80036;stroke-width:2.120640904806786;" x1="2370.8765" x2="2582.9406" y1="671.5363" y2="671.5363"/><ellipse cx="2385.0141" cy="687.0877" rx="4.2413" ry="4.2413" style="stroke:#038048;stroke-width:1.4137606032045238;fill:none;"/><text fill="#000000" font-family="Arial" font-size="22.6202" lengthAdjust="spacing" textLength="145.6173" x="2397.738" y="698.4088">nroCRM:String</text><ellipse cx="2385.0141" cy="713.0986" rx="4.2413" ry="4.2413" style="stroke:#038048;stroke-width:1.4137606032045238;fill:none;"/><text fill="#000000" font-family="Arial" font-size="22.6202" lengthAdjust="spacing" textLength="178.1338" x="2397.738" y="724.4198">dataEmissai:Date</text><line style="stroke:#A80036;stroke-width:2.120640904806786;" x1="2370.8765" x2="2582.9406" y1="734.8683" y2="734.8683"/><!--MD5=[ece54dc87833980101b32a4f4e395843]
class EspecialidadeMedica--><rect codeLine="83" fill="#FEFECE" filter="url(#f1rr5mxs1ruyfj)" height="93.8715" id="EspecialidadeMedica" style="stroke:#A80036;stroke-width:2.120640904806786;" width="279.9246" x="2701.6965" y="639.0198"/><ellipse cx="2731.1734" cy="661.64" fill="#ADD1B2" rx="15.5514" ry="15.5514" style="stroke:#A80036;stroke-width:1.4137606032045238;"/><path d="M2730.6212,670.3434 Q2728.3017,670.3434 2726.7996,669.3715 Q2725.2975,668.3774 2724.5464,666.5881 Q2723.8174,664.7767 2723.8174,662.391 Q2723.8174,659.696 2724.679,657.7742 Q2725.5626,655.8303 2727.2635,654.7921 Q2728.9865,653.7538 2731.4606,653.7538 Q2732.6535,653.7538 2733.5371,653.9968 Q2734.4207,654.2177 2735.3484,654.6816 L2734.266,657.3545 Q2733.4266,656.9348 2732.7197,656.7802 Q2732.0128,656.6255 2731.3501,656.6255 Q2729.8038,656.6255 2728.8761,657.3324 Q2727.9483,658.0172 2727.5507,659.2984 Q2727.153,660.5576 2727.153,662.2585 Q2727.153,664.9093 2728.1029,666.1905 Q2729.0528,667.4717 2731.1734,667.4717 Q2731.9687,667.4717 2732.786,667.2729 Q2733.6254,667.0741 2734.7299,666.566 L2734.7299,669.504 Q2733.758,669.9458 2732.6976,670.1446 Q2731.6594,670.3434 2730.6212,670.3434 Z " fill="#000000"/><text fill="#000000" font-family="Arial" font-size="22.6202" lengthAdjust="spacing" textLength="216.3054" x="2752.804" y="669.8519">EspecialidadeMedica</text><line style="stroke:#A80036;stroke-width:2.120640904806786;" x1="2703.1103" x2="2980.2074" y1="684.2601" y2="684.2601"/><ellipse cx="2717.2479" cy="699.8115" rx="4.2413" ry="4.2413" style="stroke:#038048;stroke-width:1.4137606032045238;fill:none;"/><text fill="#000000" font-family="Arial" font-size="22.6202" lengthAdjust="spacing" textLength="243.1668" x="2729.9717" y="711.1326">tipoEspecialidade:String</text><line style="stroke:#A80036;stroke-width:2.120640904806786;" x1="2703.1103" x2="2980.2074" y1="721.5812" y2="721.5812"/><!--MD5=[921037a8d7c2767f2005d4b2df978c94]
class Clinica--><rect codeLine="86" fill="#FEFECE" filter="url(#f1rr5mxs1ruyfj)" height="67.8605" id="Clinica" style="stroke:#A80036;stroke-width:2.120640904806786;" width="113.1008" x="2096.607" y="311.0273"/><ellipse cx="2117.8134" cy="333.6475" fill="#ADD1B2" rx="15.5514" ry="15.5514" style="stroke:#A80036;stroke-width:1.4137606032045238;"/><path d="M2117.2611,342.351 Q2114.9417,342.351 2113.4396,341.379 Q2111.9374,340.385 2111.1864,338.5957 Q2110.4574,336.7843 2110.4574,334.3986 Q2110.4574,331.7036 2111.3189,329.7818 Q2112.2025,327.8378 2113.9035,326.7996 Q2115.6265,325.7614 2118.1006,325.7614 Q2119.2934,325.7614 2120.177,326.0044 Q2121.0606,326.2253 2121.9884,326.6891 L2120.906,329.362 Q2120.0666,328.9423 2119.3597,328.7877 Q2118.6528,328.6331 2117.9901,328.6331 Q2116.4438,328.6331 2115.516,329.34 Q2114.5882,330.0247 2114.1906,331.306 Q2113.793,332.5651 2113.793,334.266 Q2113.793,336.9168 2114.7429,338.198 Q2115.6927,339.4793 2117.8134,339.4793 Q2118.6086,339.4793 2119.426,339.2805 Q2120.2654,339.0816 2121.3699,338.5736 L2121.3699,341.5115 Q2120.3979,341.9533 2119.3376,342.1522 Q2118.2994,342.351 2117.2611,342.351 Z " fill="#000000"/><text fill="#000000" font-family="Arial" font-size="22.6202" lengthAdjust="spacing" textLength="67.8605" x="2137.606" y="341.8595">Clinica</text><line style="stroke:#A80036;stroke-width:2.120640904806786;" x1="2098.0207" x2="2208.2941" y1="356.2677" y2="356.2677"/><line style="stroke:#A80036;stroke-width:2.120640904806786;" x1="2098.0207" x2="2208.2941" y1="367.5778" y2="367.5778"/><!--MD5=[1bbf87853f2c7d8475881b1570b98210]
class TipoAtividadeComercial--><rect codeLine="87" fill="#FEFECE" filter="url(#f1rr5mxs1ruyfj)" height="119.8825" id="TipoAtividadeComercial" style="stroke:#A80036;stroke-width:2.120640904806786;" width="284.1659" x="2010.3676" y="993.1668"/><ellipse cx="2031.574" cy="1015.787" fill="#ADD1B2" rx="15.5514" ry="15.5514" style="stroke:#A80036;stroke-width:1.4137606032045238;"/><path d="M2031.0217,1024.4905 Q2028.7023,1024.4905 2027.2002,1023.5185 Q2025.698,1022.5244 2024.947,1020.7352 Q2024.218,1018.9238 2024.218,1016.5381 Q2024.218,1013.8431 2025.0795,1011.9212 Q2025.9631,1009.9773 2027.6641,1008.9391 Q2029.3871,1007.9009 2031.8612,1007.9009 Q2033.054,1007.9009 2033.9376,1008.1439 Q2034.8212,1008.3648 2035.749,1008.8286 L2034.6666,1011.5015 Q2033.8272,1011.0818 2033.1203,1010.9272 Q2032.4134,1010.7726 2031.7507,1010.7726 Q2030.2044,1010.7726 2029.2766,1011.4794 Q2028.3488,1012.1642 2027.9512,1013.4455 Q2027.5536,1014.7046 2027.5536,1016.4055 Q2027.5536,1019.0563 2028.5035,1020.3375 Q2029.4533,1021.6188 2031.574,1021.6188 Q2032.3692,1021.6188 2033.1866,1021.4199 Q2034.026,1021.2211 2035.1305,1020.7131 L2035.1305,1023.651 Q2034.1585,1024.0928 2033.0982,1024.2916 Q2032.06,1024.4905 2031.0217,1024.4905 Z " fill="#000000"/><text fill="#000000" font-family="Arial" font-size="22.6202" lengthAdjust="spacing" textLength="238.9255" x="2051.3666" y="1023.999">TipoAtividadeComercial</text><line style="stroke:#A80036;stroke-width:2.120640904806786;" x1="2011.7813" x2="2293.1197" y1="1038.4072" y2="1038.4072"/><ellipse cx="2025.9189" cy="1053.9585" rx="4.2413" ry="4.2413" style="stroke:#038048;stroke-width:1.4137606032045238;fill:none;"/><text fill="#000000" font-family="Arial" font-size="22.6202" lengthAdjust="spacing" textLength="176.7201" x="2038.6428" y="1065.2797">codAtividade:long</text><ellipse cx="2025.9189" cy="1079.9695" rx="4.2413" ry="4.2413" style="stroke:#038048;stroke-width:1.4137606032045238;fill:none;"/><text fill="#000000" font-family="Arial" font-size="22.6202" lengthAdjust="spacing" textLength="212.0641" x="2038.6428" y="1091.2906">nomeAtividade:String</text><line style="stroke:#A80036;stroke-width:2.120640904806786;" x1="2011.7813" x2="2293.1197" y1="1101.7392" y2="1101.7392"/><!--MD5=[d75cd625c4ab8632f049b22f32b0ef10]
class SiteCorporativo--><rect codeLine="91" fill="#FEFECE" filter="url(#f1rr5mxs1ruyfj)" height="93.8715" id="SiteCorporativo" style="stroke:#A80036;stroke-width:2.120640904806786;" width="200.754" x="2411.8756" y="1005.8907"/><ellipse cx="2433.082" cy="1028.5108" fill="#ADD1B2" rx="15.5514" ry="15.5514" style="stroke:#A80036;stroke-width:1.4137606032045238;"/><path d="M2432.5297,1037.2143 Q2430.2103,1037.2143 2428.7082,1036.2423 Q2427.2061,1035.2483 2426.455,1033.459 Q2425.726,1031.6476 2425.726,1029.2619 Q2425.726,1026.5669 2426.5875,1024.6451 Q2427.4711,1022.7012 2429.1721,1021.6629 Q2430.8951,1020.6247 2433.3692,1020.6247 Q2434.562,1020.6247 2435.4456,1020.8677 Q2436.3292,1021.0886 2437.257,1021.5525 L2436.1746,1024.2254 Q2435.3352,1023.8057 2434.6283,1023.651 Q2433.9214,1023.4964 2433.2587,1023.4964 Q2431.7124,1023.4964 2430.7846,1024.2033 Q2429.8569,1024.8881 2429.4592,1026.1693 Q2429.0616,1027.4284 2429.0616,1029.1294 Q2429.0616,1031.7802 2430.0115,1033.0614 Q2430.9614,1034.3426 2433.082,1034.3426 Q2433.8772,1034.3426 2434.6946,1034.1438 Q2435.534,1033.945 2436.6385,1033.4369 L2436.6385,1036.3749 Q2435.6665,1036.8167 2434.6062,1037.0155 Q2433.568,1037.2143 2432.5297,1037.2143 Z " fill="#000000"/><text fill="#000000" font-family="Arial" font-size="22.6202" lengthAdjust="spacing" textLength="155.5137" x="2452.8746" y="1036.7228">SiteCorporativo</text><line style="stroke:#A80036;stroke-width:2.120640904806786;" x1="2413.2893" x2="2611.2158" y1="1051.131" y2="1051.131"/><text fill="#000000" font-family="Arial" font-size="22.6202" lengthAdjust="spacing" textLength="86.2394" x="2420.3582" y="1078.0035">url:String</text><line style="stroke:#A80036;stroke-width:2.120640904806786;" x1="2413.2893" x2="2611.2158" y1="1088.4521" y2="1088.4521"/><!--MD5=[a3fbd746cb3f95c438c775d4b5e4aaaa]
link Bairro to Endereco--><!--MD5=[2fca4c7e409c079221b5e87fcae7ed70]
link Endereco to Bairro--><path codeLine="104" d="M1078.8973,1099.5099 C1070.1744,1147.5353 1056.4326,1223.1008 1047.2432,1273.6004 " fill="none" id="Endereco-to-Bairro" style="stroke:#A80036;stroke-width:1.4137606032045238;"/><polygon fill="#A80036" points="1045.9284,1280.8671,1053.7771,1269.3661,1047.1982,1273.9133,1042.651,1267.3344,1045.9284,1280.8671" style="stroke:#A80036;stroke-width:1.4137606032045238;"/><text fill="#000000" font-family="Arial" font-size="22.6202" lengthAdjust="spacing" textLength="38.1715" x="1008.263" y="1132.089">*.. 0</text><text fill="#000000" font-family="Arial" font-size="22.6202" lengthAdjust="spacing" textLength="12.7238" x="1033.7111" y="1264.9468">1</text><!--MD5=[3297d38cd03eac22bb409a2de7360978]
link Endereco to Cidade--><path codeLine="102" d="M1158.1103,1052.5448 C1188.6616,1052.5448 1225.5325,1052.5448 1260.7352,1052.5448 " fill="none" id="Endereco-to-Cidade" style="stroke:#A80036;stroke-width:1.4137606032045238;"/><polygon fill="#A80036" points="1275.1697,1052.5448,1262.4458,1046.8897,1268.1008,1052.5448,1262.4458,1058.1998,1275.1697,1052.5448" style="stroke:#A80036;stroke-width:1.4137606032045238;"/><text fill="#000000" font-family="Arial" font-size="22.6202" lengthAdjust="spacing" textLength="32.5165" x="1174.7358" y="1046.7638">*..0</text><text fill="#000000" font-family="Arial" font-size="22.6202" lengthAdjust="spacing" textLength="12.7238" x="1251.2986" y="1047.1416">1</text><!--MD5=[e5d1c113ed89b06ee7e7c6e9f156992d]
link Endereco to Logradouro--><path codeLine="103" d="M1116.1781,1005.7069 C1143.2941,966.7861 1187.6861,914.1942 1241.9887,891.0226 C1363.3459,839.2366 1413.492,849.9105 1538.8784,891.0226 C1604.5617,912.5542 1666.8096,962.0358 1708.1762,1000.6032 " fill="none" id="Endereco-to-Logradouro" style="stroke:#A80036;stroke-width:1.4137606032045238;"/><polygon fill="#A80036" points="1713.6192,1005.721,1708.2295,992.8825,1708.4717,1000.8763,1700.478,1001.1185,1713.6192,1005.721" style="stroke:#A80036;stroke-width:1.4137606032045238;"/><text fill="#000000" font-family="Arial" font-size="22.6202" lengthAdjust="spacing" textLength="38.1715" x="1079.4011" y="989.7504">*.. 0</text><text fill="#000000" font-family="Arial" font-size="22.6202" lengthAdjust="spacing" textLength="12.7238" x="1690.9032" y="989.7673">1</text><!--MD5=[208b61d6a455a39b173b1fedff4dbda7]
link Logradouro to TipoLogradouro--><path codeLine="105" d="M1758.7182,1099.5099 C1758.7182,1143.6475 1758.7182,1211.0273 1758.7182,1260.8483 " fill="none" id="Logradouro-to-TipoLogradouro" style="stroke:#A80036;stroke-width:1.4137606032045238;"/><polygon fill="#A80036" points="1758.7182,1268.0726,1764.3732,1255.3487,1758.7182,1261.0038,1753.0631,1255.3487,1758.7182,1268.0726" style="stroke:#A80036;stroke-width:1.4137606032045238;"/><text fill="#000000" font-family="Arial" font-size="22.6202" lengthAdjust="spacing" textLength="38.1715" x="1697.7498" y="1132.089">*.. 0</text><text fill="#000000" font-family="Arial" font-size="22.6202" lengthAdjust="spacing" textLength="12.7238" x="1745.0577" y="1251.8421">1</text><!--MD5=[f1b85af98a6de868e31616225640f9d4]
link Cidade to UnidadeFederacao--><path codeLine="106" d="M1389.7267,1099.5099 C1389.7267,1143.6475 1389.7267,1211.0273 1389.7267,1260.8483 " fill="none" id="Cidade-to-UnidadeFederacao" style="stroke:#A80036;stroke-width:1.4137606032045238;"/><polygon fill="#A80036" points="1389.7267,1268.0726,1395.3817,1255.3487,1389.7267,1261.0038,1384.0716,1255.3487,1389.7267,1268.0726" style="stroke:#A80036;stroke-width:1.4137606032045238;"/><text fill="#000000" font-family="Arial" font-size="22.6202" lengthAdjust="spacing" textLength="38.1715" x="1327.9984" y="1132.089">*.. 0</text><text fill="#000000" font-family="Arial" font-size="22.6202" lengthAdjust="spacing" textLength="12.7238" x="1375.9491" y="1251.8421">1</text><!--MD5=[6f2b6970a30161bdd3352a6e16e0144a]
link EnderecoEspecifico to Endereco--><path codeLine="107" d="M1280.853,745.1791 C1236.5457,815.1885 1162.7333,931.7672 1120.1791,999.0057 " fill="none" id="EnderecoEspecifico-to-Endereco" style="stroke:#A80036;stroke-width:1.4137606032045238;"/><polygon fill="#A80036" points="1116.164,1005.3534,1127.7407,997.6168,1119.9394,999.3773,1118.1789,991.5761,1116.164,1005.3534" style="stroke:#A80036;stroke-width:1.4137606032045238;"/><text fill="#000000" font-family="Arial" font-size="22.6202" lengthAdjust="spacing" textLength="38.1715" x="1194.2661" y="779.3111">*.. 0</text><text fill="#000000" font-family="Arial" font-size="22.6202" lengthAdjust="spacing" textLength="12.7238" x="1127.7568" y="989.5183">1</text><!--MD5=[692043e82401a5628a7ddba5af537f4e]
link Pessoa to Email--><path codeLine="109" d="M957.0472,419.4836 C957.0472,419.4836 936.574,448.8124 927.427,462.2997 C890.9095,516.164 850.6598,578.3553 821.9887,623.1715 " fill="none" id="Pessoa-Email" style="stroke:#A80036;stroke-width:1.4137606032045238;"/><polygon fill="#A80036" points="811.9793,638.8501,823.5878,631.1614,815.7794,632.8897,814.0511,625.0812,811.9793,638.8501" style="stroke:#A80036;stroke-width:1.4137606032045238;"/><line style="stroke:#A80036;stroke-width:1.4137606032045238;" x1="815.7794" x2="821.8685" y1="632.8897" y2="623.3624"/><polygon fill="#A80036" points="966.8285,405.6221,957.3173,409.2924,957.0472,419.4836,966.5583,415.8132,966.8285,405.6221" style="stroke:#A80036;stroke-width:1.4137606032045238;"/><text fill="#000000" font-family="Arial" font-size="22.6202" lengthAdjust="spacing" textLength="67.8605" x="928.8407" y="484.9309">Possui</text><!--MD5=[a42a748389d88f863701883961fbb5d1]
link Pessoa to Celular--><path codeLine="110" d="M1009.4251,422.1913 C1009.4251,422.1913 1009.4251,529.5382 1009.4251,579.9953 " fill="none" id="Pessoa-Celular" style="stroke:#A80036;stroke-width:1.4137606032045238;"/><polygon fill="#A80036" points="1009.4251,598.8407,1015.0801,586.1169,1009.4251,591.7719,1003.77,586.1169,1009.4251,598.8407" style="stroke:#A80036;stroke-width:1.4137606032045238;"/><line style="stroke:#A80036;stroke-width:1.4137606032045238;" x1="1009.4251" x2="1009.4251" y1="591.7719" y2="580.4618"/><polygon fill="#A80036" points="1009.4251,405.2262,1003.77,413.7088,1009.4251,422.1913,1015.0801,413.7088,1009.4251,405.2262" style="stroke:#A80036;stroke-width:1.4137606032045238;"/><text fill="#000000" font-family="Arial" font-size="22.6202" lengthAdjust="spacing" textLength="67.8605" x="1010.8388" y="484.9309">Possui</text><!--MD5=[4990f2aec03860c96dcd149fa2c504b6]
reverse link Pessoa to PessoaFisica--><path codeLine="112" d="M906.3054,399.4722 C840.6503,434.6748 754.7361,483.393 682.8464,532.9877 C663.6334,546.2488 643.9397,561.0226 624.9246,575.9943 " fill="none" id="Pessoa-backto-PessoaFisica" style="stroke:#A80036;stroke-width:1.4137606032045238;"/><polygon fill="none" points="901.6965,390.721,931.3007,386.1828,910.9849,408.1951,901.6965,390.721" style="stroke:#A80036;stroke-width:1.4137606032045238;"/><text fill="#000000" font-family="Arial" font-size="22.6202" lengthAdjust="spacing" textLength="67.8605" x="790.2922" y="484.9309">Extend</text><!--MD5=[7aec56e6a96b9d2dd7a764b806281969]
reverse link Pessoa to PessoaJuridica--><path codeLine="113" d="M1114.7502,377.4882 C1334.1517,442.3091 1837.5636,591.0226 2052.6814,654.5853 " fill="none" id="Pessoa-backto-PessoaJuridica" style="stroke:#A80036;stroke-width:1.4137606032045238;"/><polygon fill="none" points="1111.8944,386.9604,1087.5919,369.4581,1117.5071,367.9877,1111.8944,386.9604" style="stroke:#A80036;stroke-width:1.4137606032045238;"/><text fill="#000000" font-family="Arial" font-size="22.6202" lengthAdjust="spacing" textLength="67.8605" x="1480.2074" y="484.9309">Extend</text><!--MD5=[4b302bb7a5f757d6b5811a6cd0a2cd7e]
reverse link PessoaFisica to RGPessoal--><path codeLine="114" d="M499.0575,829.0716 C499.0575,880.6598 499.0575,936.8002 499.0575,979.9199 " fill="none" id="PessoaFisica-backto-RGPessoal" style="stroke:#A80036;stroke-width:1.4137606032045238;"/><polygon fill="#A80036" points="499.0575,810.311,493.4025,818.7936,499.0575,827.2762,504.7125,818.7936,499.0575,810.311" style="stroke:#A80036;stroke-width:1.4137606032045238;"/><text fill="#000000" font-family="Arial" font-size="22.6202" lengthAdjust="spacing" textLength="32.5165" x="500.4713" y="903.4041">RG</text><text fill="#000000" font-family="Arial" font-size="22.6202" lengthAdjust="spacing" textLength="12.7238" x="484.2263" y="843.0606">1</text><text fill="#000000" font-family="Arial" font-size="22.6202" lengthAdjust="spacing" textLength="12.7238" x="485.4788" y="964.1452">1</text><!--MD5=[bb87c3b262b01f6b5803fa5d6404e281]
link Paciente to PessoaFisica--><path codeLine="115" d="M460.787,379.3827 C465.2969,415.3346 472.8464,475.3911 480.0424,532.7474 " fill="none" id="Paciente-to-PessoaFisica" style="stroke:#A80036;stroke-width:1.4137606032045238;"/><polygon fill="none" points="489.8822,531.7154,483.591,561.0085,470.2451,534.1894,489.8822,531.7154" style="stroke:#A80036;stroke-width:1.4137606032045238;"/><text fill="#000000" font-family="Arial" font-size="22.6202" lengthAdjust="spacing" textLength="67.8605" x="476.4373" y="484.9309">Extend</text><!--MD5=[b0a38fbae084b47cea79841561d6cca0]
reverse link Consulta to Paciente--><path codeLine="116" d="M336.5457,145.4477 C369.3591,199.5664 412.1254,270.099 436.7672,310.7446 " fill="none" id="Consulta-backto-Paciente" style="stroke:#A80036;stroke-width:1.4137606032045238;"/><polygon fill="#A80036" points="326.7201,129.2177,326.2851,139.4032,335.5197,143.7223,335.9548,133.5368,326.7201,129.2177" style="stroke:#A80036;stroke-width:1.4137606032045238;"/><text fill="#000000" font-family="Arial" font-size="22.6202" lengthAdjust="spacing" textLength="12.7238" x="417.6475" y="295.1421">1</text><!--MD5=[a11d6b64ac7cea43b9eb213d304f0e72]
link Consulta to PrescricaoMedica--><path codeLine="117" d="M259.3827,129.2177 C233.1574,177.427 196.3148,245.1461 171.1074,291.4892 " fill="none" id="Consulta-to-PrescricaoMedica" style="stroke:#A80036;stroke-width:1.4137606032045238;"/><polygon fill="#A80036" points="167.4741,298.1621,178.5102,289.6722,170.8434,291.948,168.5676,284.2812,167.4741,298.1621" style="stroke:#A80036;stroke-width:1.4137606032045238;"/><text fill="#000000" font-family="Arial" font-size="22.6202" lengthAdjust="spacing" textLength="100.377" x="219.1329" y="221.9715">Prescreve</text><text fill="#000000" font-family="Arial" font-size="22.6202" lengthAdjust="spacing" textLength="32.5165" x="188.9793" y="161.9511">0..*</text><text fill="#000000" font-family="Arial" font-size="22.6202" lengthAdjust="spacing" textLength="12.7238" x="158.3574" y="282.214">1</text><!--MD5=[45267579ea4303dbaa5dfd3274add5e6]
reverse link PrescricaoMedica to Remedio--><path codeLine="118" d="M140.9095,410.5844 C138.9585,477.328 135.9472,580.1084 134.2224,638.8784 " fill="none" id="PrescricaoMedica-backto-Remedio" style="stroke:#A80036;stroke-width:1.4137606032045238;"/><polygon fill="#FFFFFF" points="141.4609,391.9369,135.5565,400.2478,140.9572,408.8945,146.8616,400.5836,141.4609,391.9369" style="stroke:#A80036;stroke-width:1.4137606032045238;"/><text fill="#000000" font-family="Arial" font-size="22.6202" lengthAdjust="spacing" textLength="12.7238" x="120.5077" y="622.9303">1</text><!--MD5=[849bf2d5864883a260738739cec215d9]
link Medico to PessoaJuridica--><path codeLine="119" d="M2445.2828,379.3827 C2395.5608,431.2677 2297.7568,533.3553 2229.0481,605.0471 " fill="none" id="Medico-to-PessoaJuridica" style="stroke:#A80036;stroke-width:1.4137606032045238;"/><polygon fill="none" points="2235.9048,612.2149,2209.1989,625.7729,2221.6117,598.5156,2235.9048,612.2149" style="stroke:#A80036;stroke-width:1.4137606032045238;"/><text fill="#000000" font-family="Arial" font-size="22.6202" lengthAdjust="spacing" textLength="67.8605" x="2363.8077" y="484.9309">Extend</text><!--MD5=[a6f9ab8f7bdc69ff5889150d0b345884]
link Medico to EspecialidadeMedica--><path codeLine="120" d="M2512.5495,379.3827 C2578.1621,440.1602 2718.1385,569.8445 2792.6437,638.8501 " fill="none" id="Medico-EspecialidadeMedica" style="stroke:#A80036;stroke-width:1.4137606032045238;"/><text fill="#000000" font-family="Arial" font-size="22.6202" lengthAdjust="spacing" textLength="32.5165" x="2512.0144" y="411.4242">0..*</text><text fill="#000000" font-family="Arial" font-size="22.6202" lengthAdjust="spacing" textLength="32.5165" x="2747.2766" y="622.8965">0..*</text><!--MD5=[82e6f3d5c350916b7bc9c54b75e0bd47]
reverse link Medico to CRM--><path codeLine="121" d="M2476.9086,398.1574 C2476.9086,459.557 2476.9086,561.6023 2476.9086,625.7729 " fill="none" id="Medico-backto-CRM" style="stroke:#A80036;stroke-width:1.4137606032045238;"/><polygon fill="#A80036" points="2476.9086,379.3827,2471.2535,387.8652,2476.9086,396.3478,2482.5636,387.8652,2476.9086,379.3827" style="stroke:#A80036;stroke-width:1.4137606032045238;"/><text fill="#000000" font-family="Arial" font-size="22.6202" lengthAdjust="spacing" textLength="12.7238" x="2453.6876" y="411.4242">1</text><text fill="#000000" font-family="Arial" font-size="22.6202" lengthAdjust="spacing" textLength="12.7238" x="2463.2106" y="610.3788">1</text><!--MD5=[c16781d8360a20524730b14c5883832b]
link Clinica to PessoaJuridica--><path codeLine="122" d="M2153.1574,379.3827 C2153.1574,429.3732 2153.1574,525.9472 2153.1574,597.0735 " fill="none" id="Clinica-to-PessoaJuridica" style="stroke:#A80036;stroke-width:1.4137606032045238;"/><polygon fill="none" points="2163.0537,597.4976,2153.1574,625.7729,2143.2611,597.4976,2163.0537,597.4976" style="stroke:#A80036;stroke-width:1.4137606032045238;"/><text fill="#000000" font-family="Arial" font-size="22.6202" lengthAdjust="spacing" textLength="67.8605" x="2154.5712" y="484.9309">Extend</text><!--MD5=[cd0b6d64fdb2670c6c12cd95a9f7e5b8]
link PessoaJuridica to TipoAtividadeComercial--><path codeLine="123" d="M2153.1574,745.1791 C2153.1574,810.6362 2153.1574,916.8379 2153.1574,985.3205 " fill="none" id="PessoaJuridica-to-TipoAtividadeComercial" style="stroke:#A80036;stroke-width:1.4137606032045238;"/><polygon fill="#A80036" points="2153.1574,992.6437,2158.8124,979.9199,2153.1574,985.5749,2147.5024,979.9199,2153.1574,992.6437" style="stroke:#A80036;stroke-width:1.4137606032045238;"/><text fill="#000000" font-family="Arial" font-size="22.6202" lengthAdjust="spacing" textLength="32.5165" x="2107.811" y="779.3111">0..*</text><text fill="#000000" font-family="Arial" font-size="22.6202" lengthAdjust="spacing" textLength="12.7238" x="2139.5676" y="977.2497">1</text><!--MD5=[3e8a9e220549be67a94f469690b646fb]
link PessoaJuridica to SiteCorporativo--><path codeLine="124" d="M2210.4571,745.1791 C2279.9293,815.6126 2395.9142,933.181 2462.0358,1000.2215 " fill="none" id="PessoaJuridica-to-SiteCorporativo" style="stroke:#A80036;stroke-width:1.4137606032045238;"/><polygon fill="#A80036" points="2467.0971,1005.3534,2462.1775,992.3275,2462.1291,1000.3248,2454.1318,1000.2764,2467.0971,1005.3534" style="stroke:#A80036;stroke-width:1.4137606032045238;"/><text fill="#000000" font-family="Arial" font-size="22.6202" lengthAdjust="spacing" textLength="32.5165" x="2212.383" y="779.3111">0..*</text><text fill="#000000" font-family="Arial" font-size="22.6202" lengthAdjust="spacing" textLength="12.7238" x="2444.5527" y="989.7019">1</text><!--MD5=[110dd464f6eb03d34350d3defd3a0d90]
reverse link Pessoa to EnderecoEspecifico--><path codeLine="125" d="M1075.8435,419.1942 C1132.3091,481.0886 1212.2856,568.7842 1264.5523,626.0839 " fill="none" id="Pessoa-backto-EnderecoEspecifico" style="stroke:#A80036;stroke-width:1.4137606032045238;"/><polygon fill="#A80036" points="1063.1056,405.2262,1064.6368,415.3053,1074.5296,417.7684,1072.9983,407.6893,1063.1056,405.2262" style="stroke:#A80036;stroke-width:1.4137606032045238;"/><text fill="#000000" font-family="Arial" font-size="22.6202" lengthAdjust="spacing" textLength="12.7238" x="1242.3561" y="610.2837">1</text><!--MD5=[13e845f1dd83934f0a5227caf94842dc]
@startuml teste
scale 3000*3000
skinparam style strictual
skinparam DefaultFontName Arial
skinparam DefaultFontSize 16
' skinparam DefaultFontStyle bold



class TipoLogradouro{
    +siglaLogradouro:String
    +nomeTipo: String
}
class Bairro{
    +nomeBairro:String
}
class UnidadeFederacao{
    +siglaUF:String
    +nomeUF:String
}
together {
    class Logradouro{
        +nomeLogradouro:String
    }
    class Cidade{
        +nomeCidade:String
    }
    class Endereco{
        +cpf:String
    }
}
class EnderecoEspecifico{
    +nroLogradouro:int
    +complemento:String
}

class Pessoa{
    +nome:String
    +nomeSocial
}
class PessoaFisica{
    +cpf:String
    +primeiroNome:String
    +sobreNome:String
    +dataNascimento:Date
    +tipoSanguineo:String
    +fatorRH:char
    +sexo:String
}
class PessoaJuridica{
    +cnpj:String
    +ie:String
}
class Email{
    +email:string
}
class Celular{
    +nroCelular:String
    +isWhatsapp:bool
    +DDD:int
    +DDI:int
}
class RGPessoal{
    +nroRG:String
    +dataEmissao:String
    +ufEmissao:UnidadeFederacao
}
class Paciente
class Consulta{
    +dataConsulta:Date
    +nroConsulta:int
}
class PrescricaoMedica{
    +posologia:String
}
class Remedio{
    +nomeRemedio:String
}
class Medico
class CRM{
    +nroCRM:String
    +dataEmissai:Date
}
class EspecialidadeMedica{
    +tipoEspecialidade:String
}
class Clinica
class TipoAtividadeComercial{
    +codAtividade:long
    +nomeAtividade:String
}
class SiteCorporativo{
    url:String
}





Bairro -[hidden]-> Endereco
' Cidade -[hidden]- -> Endereco

Endereco " *..0" -> "1" Cidade
Endereco " *.. 0" -> "1" Logradouro
Endereco " *.. 0" - -> "1" Bairro
Logradouro " *.. 0" - -> "1" TipoLogradouro
Cidade " *.. 0" - -> "1" UnidadeFederacao
EnderecoEspecifico " *.. 0" - -> "1" Endereco

Pessoa *- -> Email:Possui
Pessoa *- -> Celular:Possui
' Pessoa *- - "1" Endereco
Pessoa <|- - PessoaFisica:Extend
Pessoa <|- - PessoaJuridica:Extend
PessoaFisica "1" *- - "1" RGPessoal:RG
Paciente - -|> PessoaFisica:Extend
Consulta *- - "1" Paciente
Consulta"0..*" - -> "1" PrescricaoMedica:Prescreve
PrescricaoMedica o- - "1" Remedio
Medico - -|> PessoaJuridica:Extend
Medico "0..*" - - "0..*" EspecialidadeMedica
Medico"1" *- - "1"CRM
Clinica - -|> PessoaJuridica:Extend
PessoaJuridica "0..*" - -> "1" TipoAtividadeComercial
PessoaJuridica "0..*" - -> "1" SiteCorporativo
Pessoa *- - "1" EnderecoEspecifico







@enduml

@startuml teste
scale 3000*3000
skinparam style strictual
skinparam DefaultFontName Arial
skinparam DefaultFontSize 16



class TipoLogradouro{
    +siglaLogradouro:String
    +nomeTipo: String
}
class Bairro{
    +nomeBairro:String
}
class UnidadeFederacao{
    +siglaUF:String
    +nomeUF:String
}
together {
    class Logradouro{
        +nomeLogradouro:String
    }
    class Cidade{
        +nomeCidade:String
    }
    class Endereco{
        +cpf:String
    }
}
class EnderecoEspecifico{
    +nroLogradouro:int
    +complemento:String
}

class Pessoa{
    +nome:String
    +nomeSocial
}
class PessoaFisica{
    +cpf:String
    +primeiroNome:String
    +sobreNome:String
    +dataNascimento:Date
    +tipoSanguineo:String
    +fatorRH:char
    +sexo:String
}
class PessoaJuridica{
    +cnpj:String
    +ie:String
}
class Email{
    +email:string
}
class Celular{
    +nroCelular:String
    +isWhatsapp:bool
    +DDD:int
    +DDI:int
}
class RGPessoal{
    +nroRG:String
    +dataEmissao:String
    +ufEmissao:UnidadeFederacao
}
class Paciente
class Consulta{
    +dataConsulta:Date
    +nroConsulta:int
}
class PrescricaoMedica{
    +posologia:String
}
class Remedio{
    +nomeRemedio:String
}
class Medico
class CRM{
    +nroCRM:String
    +dataEmissai:Date
}
class EspecialidadeMedica{
    +tipoEspecialidade:String
}
class Clinica
class TipoAtividadeComercial{
    +codAtividade:long
    +nomeAtividade:String
}
class SiteCorporativo{
    url:String
}





Bairro -[hidden]-> Endereco

Endereco " *..0" -> "1" Cidade
Endereco " *.. 0" -> "1" Logradouro
Endereco " *.. 0" - -> "1" Bairro
Logradouro " *.. 0" - -> "1" TipoLogradouro
Cidade " *.. 0" - -> "1" UnidadeFederacao
EnderecoEspecifico " *.. 0" - -> "1" Endereco

Pessoa *- -> Email:Possui
Pessoa *- -> Celular:Possui
Pessoa <|- - PessoaFisica:Extend
Pessoa <|- - PessoaJuridica:Extend
PessoaFisica "1" *- - "1" RGPessoal:RG
Paciente - -|> PessoaFisica:Extend
Consulta *- - "1" Paciente
Consulta"0..*" - -> "1" PrescricaoMedica:Prescreve
PrescricaoMedica o- - "1" Remedio
Medico - -|> PessoaJuridica:Extend
Medico "0..*" - - "0..*" EspecialidadeMedica
Medico"1" *- - "1"CRM
Clinica - -|> PessoaJuridica:Extend
PessoaJuridica "0..*" - -> "1" TipoAtividadeComercial
PessoaJuridica "0..*" - -> "1" SiteCorporativo
Pessoa *- - "1" EnderecoEspecifico







@enduml

PlantUML version 1.2022.0(Tue Jan 11 13:16:42 BRT 2022)
(GPL source distribution)
Java Runtime: OpenJDK Runtime Environment
JVM: OpenJDK 64-Bit Server VM
Default Encoding: UTF-8
Language: pt
Country: BR
--></g></svg>